module lab3

go 1.20

require (
	github.com/cenkalti/backoff/v4 v4.2.1
	github.com/jackc/pgx v3.6.2+incompatible
	github.com/labstack/echo/v4 v4.10.2
)

require (
	github.com/cockroachdb/apd v1.1.0 // indirect
	github.com/gofrs/uuid v4.4.0+incompatible // indirect
	github.com/golang-jwt/jwt v3.2.2+incompatible // indirect
	github.com/jackc/fake v0.0.0-20150926172116-812a484cc733 // indirect
	github.com/labstack/gommon v0.4.0 // indirect
	github.com/lib/pq v1.10.8 // indirect
	github.com/mattn/go-colorable v0.1.13 // indirect
	github.com/mattn/go-isatty v0.0.17 // indirect
	github.com/pkg/errors v0.9.1 // indirect
	github.com/shopspring/decimal v1.3.1 // indirect
	github.com/valyala/bytebufferpool v1.0.0 // indirect
	github.com/valyala/fasttemplate v1.2.2 // indirect
	golang.org/x/crypto v0.6.0 // indirect
	golang.org/x/net v0.7.0 // indirect
	golang.org/x/sys v0.5.0 // indirect
	golang.org/x/text v0.7.0 // indirect
	golang.org/x/time v0.3.0 // indirect
)
